3-семестр/Архитектура вычислительных машин и систем/Quartus/Prac4/simulation/qsim/Prac4.msim.vcd
$comment
	File created using the following command:
		vcd file Prac4.msim.vcd -direction
$end
$date
	Mon Oct 14 06:43:48 2024
$end
$version
	ModelSim Version 10.1d
$end
$timescale
	1ps
$end
$scope module Prac4_vlg_vec_tst $end
$var reg 1 ! a0 $end
$var reg 1 " a1 $end
$var reg 1 # a2 $end
$var reg 1 $ x0 $end
$var reg 1 % x1 $end
$var reg 1 & x2 $end
$var reg 1 ' x3 $end
$var reg 1 ( x4 $end
$var reg 1 ) x5 $end
$var reg 1 * x6 $end
$var reg 1 + x7 $end
$var wire 1 , y $end
$var wire 1 - sampler $end
$scope module i1 $end
$var wire 1 . gnd $end
$var wire 1 / vcc $end
$var wire 1 0 unknown $end
$var tri1 1 1 devclrn $end
$var tri1 1 2 devpor $end
$var tri1 1 3 devoe $end
$var wire 1 4 y~output_o $end
$var wire 1 5 a1~input_o $end
$var wire 1 6 x6~input_o $end
$var wire 1 7 x2~input_o $end
$var wire 1 8 x0~input_o $end
$var wire 1 9 x4~input_o $end
$var wire 1 : a2~input_o $end
$var wire 1 ; y~2_combout $end
$var wire 1 < y~3_combout $end
$var wire 1 = x5~input_o $end
$var wire 1 > x7~input_o $end
$var wire 1 ? x3~input_o $end
$var wire 1 @ x1~input_o $end
$var wire 1 A y~0_combout $end
$var wire 1 B y~1_combout $end
$var wire 1 C a0~input_o $end
$var wire 1 D y~4_combout $end
$upscope $end
$upscope $end
$enddefinitions $end
#0
$dumpvars
0!
0"
0#
0$
1%
0&
1'
0(
0)
0*
0+
0,
x-
0.
1/
x0
11
12
13
04
05
06
07
08
09
0:
0;
0<
0=
0>
1?
1@
1A
1B
0C
0D
$end
#10000
1!
1C
0-
1D
14
1,
#20000
1"
0!
15
0C
1-
0D
04
0,
#30000
1!
1C
0-
1D
14
1,
#40000
1#
0"
0!
1:
05
0C
1-
0B
0A
0D
04
0,
#50000
1!
1C
0-
#60000
1"
0!
15
0C
1-
1A
1;
#70000
1!
1C
0-
#80000
0#
0"
0!
0:
05
0C
1-
1B
0;
1<
0<
1D
14
1,
0D
04
0,
#90000
1!
1C
0-
1D
14
1,
#100000
1"
0!
15
0C
1-
0D
04
0,
#110000
1!
1C
0-
1D
14
1,
#120000
1#
0"
0!
1:
05
0C
1-
0B
0A
0D
04
0,
#130000
1!
1C
0-
#140000
1"
0!
15
0C
1-
1A
1;
#150000
1!
1C
0-
#160000
0#
0"
0!
0:
05
0C
1-
1B
0;
1<
0<
1D
14
1,
0D
04
0,
#170000
1!
1C
0-
1D
14
1,
#180000
1"
0!
15
0C
1-
0D
04
0,
#190000
1!
1C
0-
1D
14
1,
#200000
1#
0"
0!
1:
05
0C
1-
0B
0A
0D
04
0,
#210000
1!
1C
0-
#220000
1"
0!
15
0C
1-
1A
1;
#230000
1!
1C
0-
#240000
0#
0"
0!
0:
05
0C
1-
1B
0;
1<
0<
1D
14
1,
0D
04
0,
#250000
1!
1C
0-
1D
14
1,
#260000
1"
0!
15
0C
1-
0D
04
0,
#270000
1!
1C
0-
1D
14
1,
#280000
1#
0"
0!
1:
05
0C
1-
0B
0A
0D
04
0,
#290000
1!
1C
0-
#300000
1"
0!
15
0C
1-
1A
1;
#310000
1!
1C
0-
#320000
0#
0"
0!
0:
05
0C
1-
1B
0;
1<
0<
1D
14
1,
0D
04
0,
#330000
1!
1C
0-
1D
14
1,
#340000
1"
0!
15
0C
1-
0D
04
0,
#350000
1!
1C
0-
1D
14
1,
#360000
1#
0"
0!
1:
05
0C
1-
0B
0A
0D
04
0,
#370000
1!
1C
0-
#380000
1"
0!
15
0C
1-
1A
1;
#390000
1!
1C
0-
#400000
0#
0"
0!
0:
05
0C
1-
1B
0;
1<
0<
1D
14
1,
0D
04
0,
#410000
1!
1C
0-
1D
14
1,
#420000
1"
0!
15
0C
1-
0D
04
0,
#430000
1!
1C
0-
1D
14
1,
#440000
1#
0"
0!
1:
05
0C
1-
0B
0A
0D
04
0,
#450000
1!
1C
0-
#460000
1"
0!
15
0C
1-
1A
1;
#470000
1!
1C
0-
#480000
0#
0"
0!
0:
05
0C
1-
1B
0;
1<
0<
1D
14
1,
0D
04
0,
#490000
1!
1C
0-
1D
14
1,
#500000
1"
0!
15
0C
1-
0D
04
0,
#510000
1!
1C
0-
1D
14
1,
#520000
1#
0"
0!
1:
05
0C
1-
0B
0A
0D
04
0,
#530000
1!
1C
0-
#540000
1"
0!
15
0C
1-
1A
1;
#550000
1!
1C
0-
#560000
0#
0"
0!
0:
05
0C
1-
1B
0;
1<
0<
1D
14
1,
0D
04
0,
#570000
1!
1C
0-
1D
14
1,
#580000
1"
0!
15
0C
1-
0D
04
0,
#590000
1!
1C
0-
1D
14
1,
#600000
1#
0"
0!
1:
05
0C
1-
0B
0A
0D
04
0,
#610000
1!
1C
0-
#620000
1"
0!
15
0C
1-
1A
1;
#630000
1!
1C
0-
#640000
0#
0"
0!
0:
05
0C
1-
1B
0;
1<
0<
1D
14
1,
0D
04
0,
#650000
1!
1C
0-
1D
14
1,
#660000
1"
0!
15
0C
1-
0D
04
0,
#670000
1!
1C
0-
1D
14
1,
#680000
1#
0"
0!
1:
05
0C
1-
0B
0A
0D
04
0,
#690000
1!
1C
0-
#700000
1"
0!
15
0C
1-
1A
1;
#710000
1!
1C
0-
#720000
0#
0"
0!
0:
05
0C
1-
1B
0;
1<
0<
1D
14
1,
0D
04
0,
#730000
1!
1C
0-
1D
14
1,
#740000
1"
0!
15
0C
1-
0D
04
0,
#750000
1!
1C
0-
1D
14
1,
#760000
1#
0"
0!
1:
05
0C
1-
0B
0A
0D
04
0,
#770000
1!
1C
0-
#780000
1"
0!
15
0C
1-
1A
1;
#790000
1!
1C
0-
#800000
0#
0"
0!
0:
05
0C
1-
1B
0;
1<
0<
1D
14
1,
0D
04
0,
#810000
1!
1C
0-
1D
14
1,
#820000
1"
0!
15
0C
1-
0D
04
0,
#830000
1!
1C
0-
1D
14
1,
#840000
1#
0"
0!
1:
05
0C
1-
0B
0A
0D
04
0,
#850000
1!
1C
0-
#860000
1"
0!
15
0C
1-
1A
1;
#870000
1!
1C
0-
#880000
0#
0"
0!
0:
05
0C
1-
1B
0;
1<
0<
1D
14
1,
0D
04
0,
#890000
1!
1C
0-
1D
14
1,
#900000
1"
0!
15
0C
1-
0D
04
0,
#910000
1!
1C
0-
1D
14
1,
#920000
1#
0"
0!
1:
05
0C
1-
0B
0A
0D
04
0,
#930000
1!
1C
0-
#940000
1"
0!
15
0C
1-
1A
1;
#950000
1!
1C
0-
#960000
0#
0"
0!
0:
05
0C
1-
1B
0;
1<
0<
1D
14
1,
0D
04
0,
#970000
1!
1C
0-
1D
14
1,
#980000
1"
0!
15
0C
1-
0D
04
0,
#990000
1!
1C
0-
1D
14
1,
