3-семестр/Архитектура вычислительных машин и систем/Quartus/Prac7/simulation/qsim/prac7.msim.vcd
$comment
	File created using the following command:
		vcd file prac7.msim.vcd -direction
$end
$date
	Mon Oct 14 07:39:51 2024
$end
$version
	ModelSim Version 10.1d
$end
$timescale
	1ps
$end
$scope module prac7_vlg_vec_tst $end
$var reg 1 ! a $end
$var reg 1 " b $end
$var reg 1 # clock $end
$var wire 1 $ q [3] $end
$var wire 1 % q [2] $end
$var wire 1 & q [1] $end
$var wire 1 ' q [0] $end
$var wire 1 ( sampler $end
$scope module i1 $end
$var wire 1 ) gnd $end
$var wire 1 * vcc $end
$var wire 1 + unknown $end
$var tri1 1 , devclrn $end
$var tri1 1 - devpor $end
$var tri1 1 . devoe $end
$var wire 1 / q[0]~output_o $end
$var wire 1 0 q[1]~output_o $end
$var wire 1 1 q[2]~output_o $end
$var wire 1 2 q[3]~output_o $end
$var wire 1 3 clock~input_o $end
$var wire 1 4 clock~inputclkctrl_outclk $end
$var wire 1 5 b~input_o $end
$var wire 1 6 a~input_o $end
$var wire 1 7 r5~0_combout $end
$var wire 1 8 r5~1_combout $end
$var wire 1 9 newq2~0_combout $end
$var wire 1 : newq2~1_combout $end
$var wire 1 ; dff2~q $end
$var wire 1 < newq1~1_combout $end
$var wire 1 = newq1~0_combout $end
$var wire 1 > newq1~2_combout $end
$var wire 1 ? dff1~q $end
$var wire 1 @ newq3~0_combout $end
$var wire 1 A dff3~q $end
$var wire 1 B newq0~1_combout $end
$var wire 1 C newq0~0_combout $end
$var wire 1 D newq0~2_combout $end
$var wire 1 E dff0~q $end
$upscope $end
$upscope $end
$enddefinitions $end
#0
$dumpvars
0!
0"
0#
0'
0&
0%
0$
x(
0)
1*
x+
1,
1-
1.
0/
00
01
02
03
04
05
06
07
08
09
0:
0;
1<
0=
0>
0?
1@
0A
0B
0C
1D
0E
$end
#10000
1#
13
14
0(
1E
1A
0@
0<
1:
1>
1/
12
1'
1$
0>
#20000
0#
03
04
1(
#30000
1#
13
14
0(
0A
1;
1@
17
02
11
0$
1%
1=
1>
#40000
0#
03
04
1(
#50000
1#
13
14
0(
1A
1?
1B
07
0=
1<
0:
12
10
1$
1&
0D
#60000
0#
03
04
1(
#70000
1#
13
14
0(
0E
0;
0B
0<
19
0/
01
0'
0%
1D
0>
1:
#80000
0#
03
04
1(
#90000
1#
13
14
0(
1E
0?
1;
1B
0@
09
1/
00
11
1'
0&
1%
0D
#100000
0#
03
04
1(
#110000
1#
13
14
0(
0E
0A
1C
0B
1<
0:
17
0/
02
0'
0$
1D
#120000
0#
03
04
1(
#130000
1#
13
14
0(
1E
0;
0C
1B
1@
1=
0<
1:
07
1/
01
1'
0%
0D
1>
0=
0>
#140000
0#
03
04
1(
#150000
1#
13
14
0(
0E
1A
1;
0B
1<
0:
0/
12
11
0'
1$
1%
1D
1>
#160000
0#
03
04
1(
#170000
1#
13
14
0(
1E
1?
0;
1C
1B
0@
0<
19
1/
10
01
1'
1&
0%
0D
0>
#180000
0#
03
04
1(
#190000
1#
13
14
0(
0E
0A
0?
0C
0B
1@
1<
1:
09
0/
02
00
0'
0$
0&
1D
0:
#200000
1"
0#
15
03
04
1(
#210000
1#
13
14
0(
1E
1A
0@
0<
1:
1>
1/
12
1'
1$
0>
#220000
0#
03
04
1(
#230000
1#
13
14
0(
0A
1;
1@
17
02
11
0$
1%
1=
1>
#240000
0#
03
04
1(
#250000
1#
13
14
0(
1A
1?
1B
07
0=
1<
0:
18
12
10
1$
1&
0D
08
1:
0:
#260000
0#
03
04
1(
#270000
1#
13
14
0(
0E
0;
0B
0<
19
0/
01
0'
0%
1D
0>
1:
#280000
0#
03
04
1(
#290000
1#
13
14
0(
1E
0?
1;
1B
0@
09
1/
00
11
1'
0&
1%
0D
#300000
0#
03
04
1(
#310000
1#
13
14
0(
0E
0A
1C
0B
1<
0:
17
0/
02
0'
0$
1D
#320000
0#
03
04
1(
#330000
1#
13
14
0(
1E
0;
0C
1B
1@
1=
0<
1:
07
1/
01
1'
0%
0D
1>
0=
0>
#340000
0#
03
04
1(
#350000
1#
13
14
0(
0E
1A
1;
0B
1<
0:
0/
12
11
0'
1$
1%
1D
1>
#360000
0#
03
04
1(
#370000
1#
13
14
0(
1E
1?
0;
1C
1B
0@
19
1/
10
01
1'
1&
0%
#380000
0#
03
04
1(
#390000
1#
13
14
0(
0A
0C
0B
1@
0>
09
02
0$
#400000
1!
0"
0#
16
05
03
04
1(
0<
#410000
1#
13
14
0(
1A
0?
0@
1:
12
00
1$
0&
#420000
0#
03
04
1(
#430000
1#
13
14
0(
0A
1;
1@
19
17
02
11
0$
1%
1=
1>
#440000
0#
03
04
1(
#450000
1#
13
14
0(
1A
1?
1B
09
07
0=
1<
0:
12
10
1$
1&
0D
#460000
0#
03
04
1(
#470000
1#
13
14
0(
0E
0;
0B
0<
19
0/
01
0'
0%
1D
0>
1:
#480000
0#
03
04
1(
#490000
1#
13
14
0(
1E
0?
1;
1B
0@
09
1/
00
11
1'
0&
1%
0D
#500000
0#
03
04
1(
#510000
1#
13
14
0(
0E
0A
1C
0B
1<
0:
19
17
0/
02
0'
0$
1:
1=
1>
#520000
0#
03
04
1(
#530000
1#
13
14
0(
1?
0C
10
1&
1D
#540000
0#
03
04
1(
#550000
1#
13
14
0(
1E
1B
1@
0=
0:
1/
1'
0D
0>
#560000
0#
03
04
1(
#570000
1#
13
14
0(
0E
1A
0?
0;
0@
1=
1:
1>
09
07
0/
12
00
01
0'
1$
0&
0%
0:
0=
#580000
0#
03
04
1(
#590000
1#
13
14
0(
0A
1?
0B
1@
0>
0<
02
10
0$
1&
1D
#600000
1"
0#
15
03
04
1(
#610000
1#
13
14
0(
1E
1A
0?
0@
1:
1/
12
00
1'
1$
0&
#620000
0#
03
04
1(
#630000
1#
13
14
0(
0A
1;
1@
19
17
02
11
0$
1%
1=
1>
#640000
0#
03
04
1(
#650000
1#
13
14
0(
1A
1?
1B
09
07
0=
1<
0:
18
12
10
1$
1&
0D
1:
08
0:
#660000
0#
03
04
1(
#670000
1#
13
14
0(
0E
0;
0B
0<
19
0/
01
0'
0%
1D
0>
1:
#680000
0#
03
04
1(
#690000
1#
13
14
0(
1E
0?
1;
1B
0@
09
1/
00
11
1'
0&
1%
0D
#700000
0#
03
04
1(
#710000
1#
13
14
0(
0E
0A
1C
0B
1<
0:
19
17
0/
02
0'
0$
1:
1=
1>
#720000
0#
03
04
1(
#730000
1#
13
14
0(
1?
0C
10
1&
1D
#740000
0#
03
04
1(
#750000
1#
13
14
0(
1E
1B
1@
0=
0:
18
1/
1'
0D
1:
#760000
0#
03
04
1(
#770000
1#
13
14
0(
0E
1A
0@
1=
08
09
07
0/
12
0'
1$
0:
0=
#780000
0#
03
04
1(
#790000
1#
13
14
0(
0A
0;
0B
1@
0>
0<
02
01
0$
0%
1D
#800000
0!
0"
0#
06
05
03
04
1(
#810000
1#
13
14
0(
1E
1A
0?
0@
1:
1/
12
00
1'
1$
0&
#820000
0#
03
04
1(
#830000
1#
13
14
0(
0A
1;
1@
17
02
11
0$
1%
1=
1>
#840000
0#
03
04
1(
#850000
1#
13
14
0(
1A
1?
1B
07
0=
1<
0:
12
10
1$
1&
0D
#860000
0#
03
04
1(
#870000
1#
13
14
0(
0E
0;
0B
0<
19
0/
01
0'
0%
1D
0>
1:
#880000
0#
03
04
1(
#890000
1#
13
14
0(
1E
0?
1;
1B
0@
09
1/
00
11
1'
0&
1%
0D
#900000
0#
03
04
1(
#910000
1#
13
14
0(
0E
0A
1C
0B
1<
0:
17
0/
02
0'
0$
1D
#920000
0#
03
04
1(
#930000
1#
13
14
0(
1E
0;
0C
1B
1@
1=
0<
1:
07
1/
01
1'
0%
0D
1>
0=
0>
#940000
0#
03
04
1(
#950000
1#
13
14
0(
0E
1A
1;
0B
1<
0:
0/
12
11
0'
1$
1%
1D
1>
#960000
0#
03
04
1(
#970000
1#
13
14
0(
1E
1?
0;
1C
1B
0@
0<
19
1/
10
01
1'
1&
0%
0D
0>
#980000
0#
03
04
1(
#990000
1#
13
14
0(
0E
0A
0?
0C
0B
1@
1<
1:
09
0/
02
00
0'
0$
0&
1D
0:
