3-семестр/Архитектура вычислительных машин и систем/Quartus/Prac5/simulation/qsim/Prac5.msim.vcd
$comment
	File created using the following command:
		vcd file Prac5.msim.vcd -direction
$end
$date
	Mon Oct 14 07:37:48 2024
$end
$version
	ModelSim Version 10.1d
$end
$timescale
	1ps
$end
$scope module Prac5_vlg_vec_tst $end
$var reg 3 ! a [2:0] $end
$var reg 1 " x0 $end
$var reg 1 # x1 $end
$var reg 1 $ x2 $end
$var reg 1 % x3 $end
$var reg 1 & x4 $end
$var reg 1 ' x5 $end
$var reg 1 ( x6 $end
$var reg 1 ) x7 $end
$var wire 1 * y $end
$var wire 1 + sampler $end
$scope module i1 $end
$var wire 1 , gnd $end
$var wire 1 - vcc $end
$var wire 1 . unknown $end
$var tri1 1 / devclrn $end
$var tri1 1 0 devpor $end
$var tri1 1 1 devoe $end
$var wire 1 2 y~output_o $end
$var wire 1 3 a[0]~input_o $end
$var wire 1 4 x3~input_o $end
$var wire 1 5 x1~input_o $end
$var wire 1 6 x0~input_o $end
$var wire 1 7 x2~input_o $end
$var wire 1 8 a[1]~input_o $end
$var wire 1 9 inst|LPM_MUX_component|auto_generated|_~2_combout $end
$var wire 1 : inst|LPM_MUX_component|auto_generated|_~3_combout $end
$var wire 1 ; x6~input_o $end
$var wire 1 < x7~input_o $end
$var wire 1 = x5~input_o $end
$var wire 1 > x4~input_o $end
$var wire 1 ? inst|LPM_MUX_component|auto_generated|_~0_combout $end
$var wire 1 @ inst|LPM_MUX_component|auto_generated|_~1_combout $end
$var wire 1 A a[2]~input_o $end
$var wire 1 B inst|LPM_MUX_component|auto_generated|_~4_combout $end
$upscope $end
$upscope $end
$enddefinitions $end
#0
$dumpvars
b0 !
0"
1#
0$
1%
0&
0'
0(
0)
0*
x+
0,
1-
x.
1/
10
11
02
03
14
15
06
07
08
09
0:
0;
0<
0=
0>
0?
0@
0A
0B
$end
#10000
b1 !
13
0+
1:
1B
12
1*
#20000
b11 !
b10 !
03
18
1+
0:
0B
02
0*
#30000
b11 !
13
0+
1?
1:
19
1B
12
1*
#40000
b111 !
b101 !
b100 !
03
08
1A
1+
0?
09
1@
0B
0@
0:
02
0*
1B
12
1*
0B
02
0*
#50000
b101 !
13
0+
1:
#60000
b111 !
b110 !
03
18
1+
0:
#70000
b111 !
13
0+
1?
1:
19
#80000
b11 !
b1 !
b0 !
03
08
0A
1+
0?
09
1@
1B
0@
0:
12
1*
0B
02
0*
#90000
b1 !
13
0+
1:
1B
12
1*
#100000
b11 !
b10 !
03
18
1+
0:
0B
02
0*
#110000
b11 !
13
0+
1?
1:
19
1B
12
1*
#120000
b111 !
b101 !
b100 !
03
08
1A
1+
0?
09
1@
0B
0@
0:
02
0*
1B
12
1*
0B
02
0*
#130000
b101 !
13
0+
1:
#140000
b111 !
b110 !
03
18
1+
0:
#150000
b111 !
13
0+
1?
1:
19
#160000
b11 !
b1 !
b0 !
03
08
0A
1+
0?
09
1@
1B
0@
0:
12
1*
0B
02
0*
#170000
b1 !
13
0+
1:
1B
12
1*
#180000
b11 !
b10 !
03
18
1+
0:
0B
02
0*
#190000
b11 !
13
0+
1?
1:
19
1B
12
1*
#200000
b111 !
b101 !
b100 !
03
08
1A
1+
0?
09
1@
0B
0@
0:
02
0*
1B
12
1*
0B
02
0*
#210000
b101 !
13
0+
1:
#220000
b111 !
b110 !
03
18
1+
0:
#230000
b111 !
13
0+
1?
1:
19
#240000
b11 !
b1 !
b0 !
03
08
0A
1+
0?
09
1@
1B
0@
0:
12
1*
0B
02
0*
#250000
b1 !
13
0+
1:
1B
12
1*
#260000
b11 !
b10 !
03
18
1+
0:
0B
02
0*
#270000
b11 !
13
0+
1?
1:
19
1B
12
1*
#280000
b111 !
b101 !
b100 !
03
08
1A
1+
0?
09
1@
0B
0@
0:
02
0*
1B
12
1*
0B
02
0*
#290000
b101 !
13
0+
1:
#300000
b111 !
b110 !
03
18
1+
0:
#310000
b111 !
13
0+
1?
1:
19
#320000
b11 !
b1 !
b0 !
03
08
0A
1+
0?
09
1@
1B
0@
0:
12
1*
0B
02
0*
#330000
b1 !
13
0+
1:
1B
12
1*
#340000
b11 !
b10 !
03
18
1+
0:
0B
02
0*
#350000
b11 !
13
0+
1?
1:
19
1B
12
1*
#360000
b111 !
b101 !
b100 !
03
08
1A
1+
0?
09
1@
0B
0@
0:
02
0*
1B
12
1*
0B
02
0*
#370000
b101 !
13
0+
1:
#380000
b111 !
b110 !
03
18
1+
0:
#390000
b111 !
13
0+
1?
1:
19
#400000
b11 !
b1 !
b0 !
03
08
0A
1+
0?
09
1@
1B
0@
0:
12
1*
0B
02
0*
#410000
b1 !
13
0+
1:
1B
12
1*
#420000
b11 !
b10 !
03
18
1+
0:
0B
02
0*
#430000
b11 !
13
0+
1?
1:
19
1B
12
1*
#440000
b111 !
b101 !
b100 !
03
08
1A
1+
0?
09
1@
0B
0@
0:
02
0*
1B
12
1*
0B
02
0*
#450000
b101 !
13
0+
1:
#460000
b111 !
b110 !
03
18
1+
0:
#470000
b111 !
13
0+
1?
1:
19
#480000
b11 !
b1 !
b0 !
03
08
0A
1+
0?
09
1@
1B
0@
0:
12
1*
0B
02
0*
#490000
b1 !
13
0+
1:
1B
12
1*
#500000
b11 !
b10 !
03
18
1+
0:
0B
02
0*
#510000
b11 !
13
0+
1?
1:
19
1B
12
1*
#520000
b111 !
b101 !
b100 !
03
08
1A
1+
0?
09
1@
0B
0@
0:
02
0*
1B
12
1*
0B
02
0*
#530000
b101 !
13
0+
1:
#540000
b111 !
b110 !
03
18
1+
0:
#550000
b111 !
13
0+
1?
1:
19
#560000
b11 !
b1 !
b0 !
03
08
0A
1+
0?
09
1@
1B
0@
0:
12
1*
0B
02
0*
#570000
b1 !
13
0+
1:
1B
12
1*
#580000
b11 !
b10 !
03
18
1+
0:
0B
02
0*
#590000
b11 !
13
0+
1?
1:
19
1B
12
1*
#600000
b111 !
b101 !
b100 !
03
08
1A
1+
0?
09
1@
0B
0@
0:
02
0*
1B
12
1*
0B
02
0*
#610000
b101 !
13
0+
1:
#620000
b111 !
b110 !
03
18
1+
0:
#630000
b111 !
13
0+
1?
1:
19
#640000
b11 !
b1 !
b0 !
03
08
0A
1+
0?
09
1@
1B
0@
0:
12
1*
0B
02
0*
#650000
b1 !
13
0+
1:
1B
12
1*
#660000
b11 !
b10 !
03
18
1+
0:
0B
02
0*
#670000
b11 !
13
0+
1?
1:
19
1B
12
1*
#680000
b111 !
b101 !
b100 !
03
08
1A
1+
0?
09
1@
0B
0@
0:
02
0*
1B
12
1*
0B
02
0*
#690000
b101 !
13
0+
1:
#700000
b111 !
b110 !
03
18
1+
0:
#710000
b111 !
13
0+
1?
1:
19
#720000
b11 !
b1 !
b0 !
03
08
0A
1+
0?
09
1@
1B
0@
0:
12
1*
0B
02
0*
#730000
b1 !
13
0+
1:
1B
12
1*
#740000
b11 !
b10 !
03
18
1+
0:
0B
02
0*
#750000
b11 !
13
0+
1?
1:
19
1B
12
1*
#760000
b111 !
b101 !
b100 !
03
08
1A
1+
0?
09
1@
0B
0@
0:
02
0*
1B
12
1*
0B
02
0*
#770000
b101 !
13
0+
1:
#780000
b111 !
b110 !
03
18
1+
0:
#790000
b111 !
13
0+
1?
1:
19
#800000
b11 !
b1 !
b0 !
03
08
0A
1+
0?
09
1@
1B
0@
0:
12
1*
0B
02
0*
#810000
b1 !
13
0+
1:
1B
12
1*
#820000
b11 !
b10 !
03
18
1+
0:
0B
02
0*
#830000
b11 !
13
0+
1?
1:
19
1B
12
1*
#840000
b111 !
b101 !
b100 !
03
08
1A
1+
0?
09
1@
0B
0@
0:
02
0*
1B
12
1*
0B
02
0*
#850000
b101 !
13
0+
1:
#860000
b111 !
b110 !
03
18
1+
0:
#870000
b111 !
13
0+
1?
1:
19
#880000
b11 !
b1 !
b0 !
03
08
0A
1+
0?
09
1@
1B
0@
0:
12
1*
0B
02
0*
#890000
b1 !
13
0+
1:
1B
12
1*
#900000
b11 !
b10 !
03
18
1+
0:
0B
02
0*
#910000
b11 !
13
0+
1?
1:
19
1B
12
1*
#920000
b111 !
b101 !
b100 !
03
08
1A
1+
0?
09
1@
0B
0@
0:
02
0*
1B
12
1*
0B
02
0*
#930000
b101 !
13
0+
1:
#940000
b111 !
b110 !
03
18
1+
0:
#950000
b111 !
13
0+
1?
1:
19
#960000
b11 !
b1 !
b0 !
03
08
0A
1+
0?
09
1@
1B
0@
0:
12
1*
0B
02
0*
#970000
b1 !
13
0+
1:
1B
12
1*
#980000
b11 !
b10 !
03
18
1+
0:
0B
02
0*
#990000
b11 !
13
0+
1?
1:
19
1B
12
1*
