3-семестр/Архитектура вычислительных машин и систем/Quartus/Prac6/simulation/qsim/Prac6.msim.vcd
$comment
	File created using the following command:
		vcd file Prac6.msim.vcd -direction
$end
$date
	Mon Oct 14 07:38:34 2024
$end
$version
	ModelSim Version 10.1d
$end
$timescale
	1ps
$end
$scope module Prac6_vlg_vec_tst $end
$var reg 1 ! a $end
$var reg 1 " b $end
$var reg 1 # clock $end
$var wire 1 $ q [3] $end
$var wire 1 % q [2] $end
$var wire 1 & q [1] $end
$var wire 1 ' q [0] $end
$var wire 1 ( sampler $end
$scope module i1 $end
$var wire 1 ) gnd $end
$var wire 1 * vcc $end
$var wire 1 + unknown $end
$var tri1 1 , devclrn $end
$var tri1 1 - devpor $end
$var tri1 1 . devoe $end
$var wire 1 / q[3]~output_o $end
$var wire 1 0 q[2]~output_o $end
$var wire 1 1 q[1]~output_o $end
$var wire 1 2 q[0]~output_o $end
$var wire 1 3 clock~input_o $end
$var wire 1 4 clock~inputclkctrl_outclk $end
$var wire 1 5 b~input_o $end
$var wire 1 6 inst~2_combout $end
$var wire 1 7 inst~7_combout $end
$var wire 1 8 inst~1_combout $end
$var wire 1 9 inst19~2_combout $end
$var wire 1 : inst19~1_combout $end
$var wire 1 ; a~input_o $end
$var wire 1 < inst~3_combout $end
$var wire 1 = inst~4_combout $end
$var wire 1 > inst19~0_combout $end
$var wire 1 ? inst19~3_combout $end
$var wire 1 @ inst27~q $end
$var wire 1 A inst~0_combout $end
$var wire 1 B inst~6_combout $end
$var wire 1 C inst18~1_combout $end
$var wire 1 D inst18~0_combout $end
$var wire 1 E inst18~2_combout $end
$var wire 1 F inst25~q $end
$var wire 1 G inst~5_combout $end
$var wire 1 H inst20~4_combout $end
$var wire 1 I inst20~2_combout $end
$var wire 1 J inst20~3_combout $end
$var wire 1 K inst29~q $end
$var wire 1 L inst17~combout $end
$var wire 1 M inst23~q $end
$upscope $end
$upscope $end
$enddefinitions $end
#0
$dumpvars
0!
0"
0#
0'
0&
0%
0$
x(
0)
1*
x+
1,
1-
1.
0/
00
01
02
03
04
05
06
07
08
09
0:
0;
0<
0=
1>
0?
0@
0A
0B
0C
0D
0E
0F
0G
0H
0I
1J
0K
1L
0M
$end
#10000
1#
13
14
0(
1M
1K
0L
1H
1B
1?
1:
1/
12
1$
1'
1C
0?
1E
#20000
0#
03
04
1(
#30000
1#
13
14
0(
0M
1F
1L
0H
0B
1<
1D
0/
10
0$
1%
0C
0>
1?
#40000
0#
03
04
1(
#50000
1#
13
14
0(
1M
1@
1H
0<
16
0D
1/
11
1$
1&
0J
1>
19
0E
#60000
0#
03
04
1(
#70000
1#
13
14
0(
0K
0F
0H
1D
06
02
00
0'
0%
1J
1E
09
0?
#80000
0#
03
04
1(
#90000
1#
13
14
0(
1K
1F
0@
0L
1H
12
10
01
1'
1%
0&
0J
#100000
0#
03
04
1(
#110000
1#
13
14
0(
0M
0K
0E
1=
0D
0:
0/
02
0$
0'
1I
1J
#120000
0#
03
04
1(
#130000
1#
13
14
0(
1K
0F
1L
1A
0=
1:
12
00
1'
0%
1C
0I
1E
0J
#140000
0#
03
04
1(
#150000
1#
13
14
0(
1M
0K
1F
0H
0A
0:
1/
02
10
1$
0'
1%
1J
0C
1?
0E
#160000
0#
03
04
1(
#170000
1#
13
14
0(
1K
0F
1@
0L
1H
1:
17
12
00
11
1'
0%
1&
0J
0?
#180000
0#
03
04
1(
#190000
1#
13
14
0(
0M
0K
0@
1L
0H
07
0:
0/
02
01
0$
0'
0&
1J
#200000
1"
0#
15
03
04
1(
#210000
1#
13
14
0(
1M
1K
0L
1H
1B
1?
1:
1/
12
1$
1'
1C
0?
1E
#220000
0#
03
04
1(
#230000
1#
13
14
0(
0M
1F
1L
0H
0B
1<
1D
0/
10
0$
1%
0C
0>
1?
#240000
0#
03
04
1(
#250000
1#
13
14
0(
1M
1@
1H
0<
16
0D
1/
11
1$
1&
0J
1>
19
0E
#260000
0#
03
04
1(
#270000
1#
13
14
0(
0K
0F
0H
1D
06
02
00
0'
0%
1J
1E
09
0?
#280000
0#
03
04
1(
#290000
1#
13
14
0(
1K
1F
0@
0L
1H
12
10
01
1'
1%
0&
0J
#300000
0#
03
04
1(
#310000
1#
13
14
0(
0M
0K
0E
1=
0D
0:
0/
02
0$
0'
1I
1J
#320000
0#
03
04
1(
#330000
1#
13
14
0(
1K
0F
1L
1A
0=
1:
12
00
1'
0%
1C
0I
1E
0J
#340000
0#
03
04
1(
#350000
1#
13
14
0(
1M
0K
1F
0H
0A
0:
1/
02
10
1$
0'
1%
1J
0C
1?
0E
#360000
0#
03
04
1(
#370000
1#
13
14
0(
1K
0F
1@
0L
1H
1:
17
12
00
11
1'
0%
1&
0J
0?
1I
19
1J
1?
#380000
0#
03
04
1(
#390000
1#
13
14
0(
0M
1L
0H
07
0/
0$
0I
09
0?
#400000
1!
0"
0#
1;
05
03
04
1(
#410000
1#
13
14
0(
1M
0@
0L
1H
1B
1/
01
1$
0&
1C
1E
#420000
0#
03
04
1(
#430000
1#
13
14
0(
0M
1F
1L
0H
0B
1<
1D
0/
10
0$
1%
0C
0>
1?
#440000
0#
03
04
1(
#450000
1#
13
14
0(
1M
1@
1H
0<
16
0D
1/
11
1$
1&
0J
1>
19
0E
#460000
0#
03
04
1(
#470000
1#
13
14
0(
0K
0F
0H
1D
06
02
00
0'
0%
1J
1E
09
0?
#480000
0#
03
04
1(
#490000
1#
13
14
0(
1K
1F
0@
0L
1H
12
10
01
1'
1%
0&
0J
#500000
0#
03
04
1(
#510000
1#
13
14
0(
0M
0K
0E
1=
0D
0:
0/
02
0$
0'
0>
1E
1?
#520000
0#
03
04
1(
#530000
1#
13
14
0(
1@
1G
0=
11
1&
1J
#540000
0#
03
04
1(
#550000
1#
13
14
0(
1K
1L
0G
1:
18
12
1'
0J
1>
0E
0?
#560000
0#
03
04
1(
#570000
1#
13
14
0(
1M
0K
0F
0@
0L
08
0:
1/
02
00
01
1$
0'
0%
0&
1?
#580000
0#
03
04
1(
#590000
1#
13
14
0(
0M
1@
1L
0H
0?
1D
1:
0/
11
0$
1&
1J
#600000
1"
0#
15
03
04
1(
#610000
1#
13
14
0(
1M
1K
0@
0L
1H
1E
1B
0D
1/
12
01
1$
1'
0&
1C
0E
1E
#620000
0#
03
04
1(
#630000
1#
13
14
0(
0M
1F
1L
0H
0B
1<
1D
0/
10
0$
1%
0C
0>
1?
#640000
0#
03
04
1(
#650000
1#
13
14
0(
1M
1@
1H
0<
16
0D
1/
11
1$
1&
0J
1>
19
0E
#660000
0#
03
04
1(
#670000
1#
13
14
0(
0K
0F
0H
1D
06
02
00
0'
0%
1J
1E
09
0?
#680000
0#
03
04
1(
#690000
1#
13
14
0(
1K
1F
0@
0L
1H
12
10
01
1'
1%
0&
0J
#700000
0#
03
04
1(
#710000
1#
13
14
0(
0M
0K
0E
1=
0D
0:
0/
02
0$
0'
0>
1E
1?
#720000
0#
03
04
1(
#730000
1#
13
14
0(
1@
1G
0=
11
1&
1J
#740000
0#
03
04
1(
#750000
1#
13
14
0(
1K
1L
0G
1:
18
12
1'
0J
1>
1C
19
#760000
0#
03
04
1(
#770000
1#
13
14
0(
1M
0K
0L
08
0:
1/
02
1$
0'
0C
09
0E
#780000
0#
03
04
1(
#790000
1#
13
14
0(
0M
0F
1L
0H
0?
1D
1:
0/
00
0$
0%
1J
#800000
0!
0"
0#
0;
05
03
04
1(
#810000
1#
13
14
0(
1M
1K
0@
0L
1H
1E
1B
0D
1/
12
01
1$
1'
0&
1C
0E
1E
#820000
0#
03
04
1(
#830000
1#
13
14
0(
0M
1F
1L
0H
0B
1<
1D
0/
10
0$
1%
0C
0>
1?
#840000
0#
03
04
1(
#850000
1#
13
14
0(
1M
1@
1H
0<
16
0D
1/
11
1$
1&
0J
1>
19
0E
#860000
0#
03
04
1(
#870000
1#
13
14
0(
0K
0F
0H
1D
06
02
00
0'
0%
1J
1E
09
0?
#880000
0#
03
04
1(
#890000
1#
13
14
0(
1K
1F
0@
0L
1H
12
10
01
1'
1%
0&
0J
#900000
0#
03
04
1(
#910000
1#
13
14
0(
0M
0K
0E
1=
0D
0:
0/
02
0$
0'
1I
1J
#920000
0#
03
04
1(
#930000
1#
13
14
0(
1K
0F
1L
1A
0=
1:
12
00
1'
0%
1C
0I
1E
0J
#940000
0#
03
04
1(
#950000
1#
13
14
0(
1M
0K
1F
0H
0A
0:
1/
02
10
1$
0'
1%
1J
0C
1?
0E
#960000
0#
03
04
1(
#970000
1#
13
14
0(
1K
0F
1@
0L
1H
1:
17
12
00
11
1'
0%
1&
0J
0?
#980000
0#
03
04
1(
#990000
1#
13
14
0(
0M
0K
0@
1L
0H
07
0:
0/
02
01
0$
0'
0&
1J
